^C:\TMP\ENOSH\PASSTHETASH\PASSTHETASH\X64\RELEASE\COMMANDEXECUTE.OBJ|C:\TMP\ENOSH\PASSTHETASH\PASSTHETASH\X64\RELEASE\MIMIKATZ.OBJ|C:\TMP\ENOSH\PASSTHETASH\PASSTHETASH\X64\RELEASE\MIMIKATZ_KERBEROS_PACKAGE.OBJ|C:\TMP\ENOSH\PASSTHETASH\PASSTHETASH\X64\RELEASE\MIMIKATZ_MSV_PACKAGE.OBJ|C:\TMP\ENOSH\PASSTHETASH\PASSTHETASH\X64\RELEASE\MIMIKATZ_NT5_CRYPT.OBJ|C:\TMP\ENOSH\PASSTHETASH\PASSTHETASH\X64\RELEASE\MIMIKATZ_NT6_CRYPT.OBJ|C:\TMP\ENOSH\PASSTHETASH\PASSTHETASH\X64\RELEASE\MIMIKATZ_PROCESS.OBJ|C:\TMP\ENOSH\PASSTHETASH\PASSTHETASH\X64\RELEASE\MIMIKATZ_UTILITIES.OBJ|C:\TMP\ENOSH\PASSTHETASH\PASSTHETASH\X64\RELEASE\NETWORKCONNECTION.OBJ|C:\TMP\ENOSH\PASSTHETASH\PASSTHETASH\X64\RELEASE\PASSTHETASH.OBJ|C:\TMP\ENOSH\PASSTHETASH\PASSTHETASH\X64\RELEASE\UTILITIES.OBJ|C:\TMP\ENOSH\PASSTHETASH\PASSTHETASH\X64\RELEASE\WMIEXEC.OBJ|C:\TMP\ENOSH\PASSTHETASH\PASSTHETASH\X64\RELEASE\WMIEXEC_AUTHENTICATION.OBJ|C:\TMP\ENOSH\PASSTHETASH\PASSTHETASH\X64\RELEASE\WMIEXEC_DCERPC.OBJ|C:\TMP\ENOSH\PASSTHETASH\PASSTHETASH\X64\RELEASE\WMIEXEC_IOXIDRESOLVER.OBJ|C:\TMP\ENOSH\PASSTHETASH\PASSTHETASH\X64\RELEASE\WMIEXEC_IREMUNKNOWN.OBJ|C:\TMP\ENOSH\PASSTHETASH\PASSTHETASH\X64\RELEASE\WMIEXEC_ISYSTEMACTIVATOR.OBJ|C:\TMP\ENOSH\PASSTHETASH\PASSTHETASH\X64\RELEASE\WMIEXEC_IWBEMLEVEL1LOGIN.OBJ|C:\TMP\ENOSH\PASSTHETASH\PASSTHETASH\X64\RELEASE\WMIEXEC_IWBEMLOGINCLIENTID.OBJ|C:\TMP\ENOSH\PASSTHETASH\PASSTHETASH\X64\RELEASE\WMIEXEC_IWBEMSERVICES.OBJ|C:\TMP\ENOSH\PASSTHETASH\PASSTHETASH\X64\RELEASE\WMIEXEC_REMOTEINSTANCE.OBJ
C:\PROGRAM FILES (X86)\WINDOWS KITS\10\LIB\10.0.18362.0\UM\X64\BCRYPT.LIB
C:\PROGRAM FILES (X86)\WINDOWS KITS\10\LIB\10.0.18362.0\UM\X64\WS2_32.LIB
C:\PROGRAM FILES (X86)\WINDOWS KITS\10\LIB\10.0.18362.0\UM\X64\MSWSOCK.LIB
C:\PROGRAM FILES (X86)\WINDOWS KITS\10\LIB\10.0.18362.0\UM\X64\ADVAPI32.LIB
C:\PROGRAM FILES (X86)\WINDOWS KITS\10\LIB\10.0.18362.0\UM\X64\WBEMUUID.LIB
C:\PROGRAM FILES (X86)\WINDOWS KITS\10\LIB\10.0.18362.0\UM\X64\KERNEL32.LIB
C:\PROGRAM FILES (X86)\WINDOWS KITS\10\LIB\10.0.18362.0\UM\X64\USER32.LIB
C:\PROGRAM FILES (X86)\WINDOWS KITS\10\LIB\10.0.18362.0\UM\X64\GDI32.LIB
C:\PROGRAM FILES (X86)\WINDOWS KITS\10\LIB\10.0.18362.0\UM\X64\WINSPOOL.LIB
C:\PROGRAM FILES (X86)\WINDOWS KITS\10\LIB\10.0.18362.0\UM\X64\COMDLG32.LIB
C:\PROGRAM FILES (X86)\WINDOWS KITS\10\LIB\10.0.18362.0\UM\X64\SHELL32.LIB
C:\PROGRAM FILES (X86)\WINDOWS KITS\10\LIB\10.0.18362.0\UM\X64\OLE32.LIB
C:\PROGRAM FILES (X86)\WINDOWS KITS\10\LIB\10.0.18362.0\UM\X64\OLEAUT32.LIB
C:\PROGRAM FILES (X86)\WINDOWS KITS\10\LIB\10.0.18362.0\UM\X64\UUID.LIB
C:\PROGRAM FILES (X86)\WINDOWS KITS\10\LIB\10.0.18362.0\UM\X64\ODBC32.LIB
C:\PROGRAM FILES (X86)\WINDOWS KITS\10\LIB\10.0.18362.0\UM\X64\ODBCCP32.LIB
C:\TMP\ENOSH\PASSTHETASH\PASSTHETASH\X64\RELEASE\COMMANDEXECUTE.OBJ
C:\TMP\ENOSH\PASSTHETASH\PASSTHETASH\X64\RELEASE\MIMIKATZ.OBJ
C:\TMP\ENOSH\PASSTHETASH\PASSTHETASH\X64\RELEASE\MIMIKATZ_KERBEROS_PACKAGE.OBJ
C:\TMP\ENOSH\PASSTHETASH\PASSTHETASH\X64\RELEASE\MIMIKATZ_MSV_PACKAGE.OBJ
C:\TMP\ENOSH\PASSTHETASH\PASSTHETASH\X64\RELEASE\MIMIKATZ_NT5_CRYPT.OBJ
C:\TMP\ENOSH\PASSTHETASH\PASSTHETASH\X64\RELEASE\MIMIKATZ_NT6_CRYPT.OBJ
C:\TMP\ENOSH\PASSTHETASH\PASSTHETASH\X64\RELEASE\MIMIKATZ_PROCESS.OBJ
C:\TMP\ENOSH\PASSTHETASH\PASSTHETASH\X64\RELEASE\MIMIKATZ_UTILITIES.OBJ
C:\TMP\ENOSH\PASSTHETASH\PASSTHETASH\X64\RELEASE\NETWORKCONNECTION.OBJ
C:\TMP\ENOSH\PASSTHETASH\PASSTHETASH\X64\RELEASE\PASSTHETASH.OBJ
C:\TMP\ENOSH\PASSTHETASH\PASSTHETASH\X64\RELEASE\UTILITIES.OBJ
C:\TMP\ENOSH\PASSTHETASH\PASSTHETASH\X64\RELEASE\WMIEXEC.OBJ
C:\TMP\ENOSH\PASSTHETASH\PASSTHETASH\X64\RELEASE\WMIEXEC_AUTHENTICATION.OBJ
C:\TMP\ENOSH\PASSTHETASH\PASSTHETASH\X64\RELEASE\WMIEXEC_DCERPC.OBJ
C:\TMP\ENOSH\PASSTHETASH\PASSTHETASH\X64\RELEASE\WMIEXEC_IOXIDRESOLVER.OBJ
C:\TMP\ENOSH\PASSTHETASH\PASSTHETASH\X64\RELEASE\WMIEXEC_IREMUNKNOWN.OBJ
C:\TMP\ENOSH\PASSTHETASH\PASSTHETASH\X64\RELEASE\WMIEXEC_ISYSTEMACTIVATOR.OBJ
C:\TMP\ENOSH\PASSTHETASH\PASSTHETASH\X64\RELEASE\WMIEXEC_IWBEMLEVEL1LOGIN.OBJ
C:\TMP\ENOSH\PASSTHETASH\PASSTHETASH\X64\RELEASE\WMIEXEC_IWBEMLOGINCLIENTID.OBJ
C:\TMP\ENOSH\PASSTHETASH\PASSTHETASH\X64\RELEASE\WMIEXEC_IWBEMSERVICES.OBJ
C:\TMP\ENOSH\PASSTHETASH\PASSTHETASH\X64\RELEASE\WMIEXEC_REMOTEINSTANCE.OBJ
C:\WINDOWS\GLOBALIZATION\SORTING\SORTDEFAULT.NLS
C:\PROGRAM FILES (X86)\MICROSOFT VISUAL STUDIO\2017\COMMUNITY\VC\TOOLS\MSVC\14.14.26428\BIN\HOSTX86\X64\C2.DLL
C:\PROGRAM FILES (X86)\MICROSOFT VISUAL STUDIO\2017\COMMUNITY\VC\TOOLS\MSVC\14.14.26428\LIB\X64\LIBCPMT.LIB
C:\PROGRAM FILES (X86)\MICROSOFT VISUAL STUDIO\2017\COMMUNITY\VC\TOOLS\MSVC\14.14.26428\LIB\X64\LIBCMT.LIB
C:\PROGRAM FILES (X86)\MICROSOFT VISUAL STUDIO\2017\COMMUNITY\VC\TOOLS\MSVC\14.14.26428\LIB\X64\OLDNAMES.LIB
C:\PROGRAM FILES (X86)\MICROSOFT VISUAL STUDIO\2017\COMMUNITY\VC\TOOLS\MSVC\14.14.26428\LIB\X64\COMSUPPW.LIB
C:\PROGRAM FILES (X86)\MICROSOFT VISUAL STUDIO\2017\COMMUNITY\VC\TOOLS\MSVC\14.14.26428\LIB\X64\LIBVCRUNTIME.LIB
C:\PROGRAM FILES (X86)\WINDOWS KITS\10\LIB\10.0.18362.0\UCRT\X64\LIBUCRT.LIB
C:\PROGRAM FILES (X86)\MICROSOFT VISUAL STUDIO\2017\COMMUNITY\VC\TOOLS\MSVC\14.14.26428\BIN\HOSTX86\X64\1033\LINKUI.DLL
C:\PROGRAM FILES (X86)\WINDOWS KITS\10\BIN\10.0.18362.0\X86\RC.EXE
C:\PROGRAM FILES (X86)\MICROSOFT VISUAL STUDIO\2017\COMMUNITY\VC\TOOLS\MSVC\14.14.26428\BIN\HOSTX86\X86\CVTRES.EXE
C:\WINDOWS\SYSTEM32\TZRES.DLL
C:\PROGRAM FILES (X86)\MICROSOFT VISUAL STUDIO\2017\COMMUNITY\VC\TOOLS\MSVC\14.14.26428\BIN\HOSTX86\X64\VCTIP.EXE
