^C:\tmp\enosh\passthetash\PassTheTash\PassTheTash.vcxproj
C:\tmp\enosh\passthetash\x64\Release\PassTheTash.ipdb
C:\tmp\enosh\passthetash\x64\Release\PassTheTash.iobj
^C:\tmp\enosh\passthetash\PassTheTash\PassTheTash.vcxproj
C:\tmp\enosh\passthetash\x64\Release\PassTheTash.ipdb
C:\tmp\enosh\passthetash\x64\Release\PassTheTash.iobj
^C:\tmp\enosh\passthetash\PassTheTash\PassTheTash.vcxproj
C:\tmp\enosh\passthetash\x64\Release\PassTheTash.ipdb
C:\tmp\enosh\passthetash\x64\Release\PassTheTash.iobj
^C:\tmp\enosh\passthetash\PassTheTash\PassTheTash.vcxproj
C:\tmp\enosh\passthetash\x64\Release\PassTheTash.ipdb
C:\tmp\enosh\passthetash\x64\Release\PassTheTash.iobj
^C:\tmp\enosh\passthetash\PassTheTash\PassTheTash.vcxproj
C:\tmp\enosh\passthetash\x64\Release\PassTheTash.ipdb
C:\tmp\enosh\passthetash\x64\Release\PassTheTash.iobj
^C:\tmp\enosh\passthetash\PassTheTash\PassTheTash.vcxproj
C:\tmp\enosh\passthetash\x64\Release\PassTheTash.ipdb
C:\tmp\enosh\passthetash\x64\Release\PassTheTash.iobj
^C:\tmp\enosh\passthetash\PassTheTash\PassTheTash.vcxproj
C:\tmp\enosh\passthetash\x64\Release\PassTheTash.ipdb
C:\tmp\enosh\passthetash\x64\Release\PassTheTash.iobj
^C:\tmp\enosh\passthetash\PassTheTash\PassTheTash.vcxproj
C:\tmp\enosh\passthetash\x64\Release\PassTheTash.ipdb
C:\tmp\enosh\passthetash\x64\Release\PassTheTash.iobj
^C:\tmp\enosh\passthetash\PassTheTash\PassTheTash.vcxproj
C:\tmp\enosh\passthetash\x64\Release\PassTheTash.ipdb
C:\tmp\enosh\passthetash\x64\Release\PassTheTash.iobj
^C:\tmp\enosh\passthetash\PassTheTash\PassTheTash.vcxproj
C:\tmp\enosh\passthetash\x64\Release\PassTheTash.ipdb
C:\tmp\enosh\passthetash\x64\Release\PassTheTash.iobj
^C:\tmp\enosh\passthetash\PassTheTash\PassTheTash.vcxproj
C:\tmp\enosh\passthetash\x64\Release\PassTheTash.ipdb
C:\tmp\enosh\passthetash\x64\Release\PassTheTash.iobj
^C:\tmp\enosh\passthetash\PassTheTash\PassTheTash.vcxproj
C:\tmp\enosh\passthetash\x64\Release\PassTheTash.ipdb
C:\tmp\enosh\passthetash\x64\Release\PassTheTash.iobj
