^C:\TMP\ENOSH\PASSTHETASH\PASSTHETASH\RELEASE\COMMANDEXECUTE.OBJ|C:\TMP\ENOSH\PASSTHETASH\PASSTHETASH\RELEASE\MIMIKATZ.OBJ|C:\TMP\ENOSH\PASSTHETASH\PASSTHETASH\RELEASE\MIMIKATZ_KERBEROS_PACKAGE.OBJ|C:\TMP\ENOSH\PASSTHETASH\PASSTHETASH\RELEASE\MIMIKATZ_MSV_PACKAGE.OBJ|C:\TMP\ENOSH\PASSTHETASH\PASSTHETASH\RELEASE\MIMIKATZ_NT5_CRYPT.OBJ|C:\TMP\ENOSH\PASSTHETASH\PASSTHETASH\RELEASE\MIMIKATZ_NT6_CRYPT.OBJ|C:\TMP\ENOSH\PASSTHETASH\PASSTHETASH\RELEASE\MIMIKATZ_PROCESS.OBJ|C:\TMP\ENOSH\PASSTHETASH\PASSTHETASH\RELEASE\MIMIKATZ_UTILITIES.OBJ|C:\TMP\ENOSH\PASSTHETASH\PASSTHETASH\RELEASE\NETWORKCONNECTION.OBJ|C:\TMP\ENOSH\PASSTHETASH\PASSTHETASH\RELEASE\PASSTHETASH.OBJ|C:\TMP\ENOSH\PASSTHETASH\PASSTHETASH\RELEASE\UTILITIES.OBJ|C:\TMP\ENOSH\PASSTHETASH\PASSTHETASH\RELEASE\WMIEXEC.OBJ|C:\TMP\ENOSH\PASSTHETASH\PASSTHETASH\RELEASE\WMIEXEC_AUTHENTICATION.OBJ|C:\TMP\ENOSH\PASSTHETASH\PASSTHETASH\RELEASE\WMIEXEC_DCERPC.OBJ|C:\TMP\ENOSH\PASSTHETASH\PASSTHETASH\RELEASE\WMIEXEC_IOXIDRESOLVER.OBJ|C:\TMP\ENOSH\PASSTHETASH\PASSTHETASH\RELEASE\WMIEXEC_IREMUNKNOWN.OBJ|C:\TMP\ENOSH\PASSTHETASH\PASSTHETASH\RELEASE\WMIEXEC_ISYSTEMACTIVATOR.OBJ|C:\TMP\ENOSH\PASSTHETASH\PASSTHETASH\RELEASE\WMIEXEC_IWBEMLEVEL1LOGIN.OBJ|C:\TMP\ENOSH\PASSTHETASH\PASSTHETASH\RELEASE\WMIEXEC_IWBEMLOGINCLIENTID.OBJ|C:\TMP\ENOSH\PASSTHETASH\PASSTHETASH\RELEASE\WMIEXEC_IWBEMSERVICES.OBJ|C:\TMP\ENOSH\PASSTHETASH\PASSTHETASH\RELEASE\WMIEXEC_REMOTEINSTANCE.OBJ
C:\PROGRAM FILES (X86)\WINDOWS KITS\10\LIB\10.0.18362.0\UM\X86\BCRYPT.LIB
C:\PROGRAM FILES (X86)\WINDOWS KITS\10\LIB\10.0.18362.0\UM\X86\WS2_32.LIB
C:\PROGRAM FILES (X86)\WINDOWS KITS\10\LIB\10.0.18362.0\UM\X86\MSWSOCK.LIB
C:\PROGRAM FILES (X86)\WINDOWS KITS\10\LIB\10.0.18362.0\UM\X86\ADVAPI32.LIB
C:\PROGRAM FILES (X86)\WINDOWS KITS\10\LIB\10.0.18362.0\UM\X86\WBEMUUID.LIB
C:\PROGRAM FILES (X86)\WINDOWS KITS\10\LIB\10.0.18362.0\UM\X86\KERNEL32.LIB
C:\PROGRAM FILES (X86)\WINDOWS KITS\10\LIB\10.0.18362.0\UM\X86\USER32.LIB
C:\PROGRAM FILES (X86)\WINDOWS KITS\10\LIB\10.0.18362.0\UM\X86\GDI32.LIB
C:\PROGRAM FILES (X86)\WINDOWS KITS\10\LIB\10.0.18362.0\UM\X86\WINSPOOL.LIB
C:\PROGRAM FILES (X86)\WINDOWS KITS\10\LIB\10.0.18362.0\UM\X86\COMDLG32.LIB
C:\PROGRAM FILES (X86)\WINDOWS KITS\10\LIB\10.0.18362.0\UM\X86\SHELL32.LIB
C:\PROGRAM FILES (X86)\WINDOWS KITS\10\LIB\10.0.18362.0\UM\X86\OLE32.LIB
C:\PROGRAM FILES (X86)\WINDOWS KITS\10\LIB\10.0.18362.0\UM\X86\OLEAUT32.LIB
C:\PROGRAM FILES (X86)\WINDOWS KITS\10\LIB\10.0.18362.0\UM\X86\UUID.LIB
C:\PROGRAM FILES (X86)\WINDOWS KITS\10\LIB\10.0.18362.0\UM\X86\ODBC32.LIB
C:\PROGRAM FILES (X86)\WINDOWS KITS\10\LIB\10.0.18362.0\UM\X86\ODBCCP32.LIB
C:\TMP\ENOSH\PASSTHETASH\PASSTHETASH\RELEASE\COMMANDEXECUTE.OBJ
C:\TMP\ENOSH\PASSTHETASH\PASSTHETASH\RELEASE\MIMIKATZ.OBJ
C:\TMP\ENOSH\PASSTHETASH\PASSTHETASH\RELEASE\MIMIKATZ_KERBEROS_PACKAGE.OBJ
C:\TMP\ENOSH\PASSTHETASH\PASSTHETASH\RELEASE\MIMIKATZ_MSV_PACKAGE.OBJ
C:\TMP\ENOSH\PASSTHETASH\PASSTHETASH\RELEASE\MIMIKATZ_NT5_CRYPT.OBJ
C:\TMP\ENOSH\PASSTHETASH\PASSTHETASH\RELEASE\MIMIKATZ_NT6_CRYPT.OBJ
C:\TMP\ENOSH\PASSTHETASH\PASSTHETASH\RELEASE\MIMIKATZ_PROCESS.OBJ
C:\TMP\ENOSH\PASSTHETASH\PASSTHETASH\RELEASE\MIMIKATZ_UTILITIES.OBJ
C:\TMP\ENOSH\PASSTHETASH\PASSTHETASH\RELEASE\NETWORKCONNECTION.OBJ
C:\TMP\ENOSH\PASSTHETASH\PASSTHETASH\RELEASE\PASSTHETASH.OBJ
C:\TMP\ENOSH\PASSTHETASH\PASSTHETASH\RELEASE\UTILITIES.OBJ
C:\TMP\ENOSH\PASSTHETASH\PASSTHETASH\RELEASE\WMIEXEC.OBJ
C:\TMP\ENOSH\PASSTHETASH\PASSTHETASH\RELEASE\WMIEXEC_AUTHENTICATION.OBJ
C:\TMP\ENOSH\PASSTHETASH\PASSTHETASH\RELEASE\WMIEXEC_DCERPC.OBJ
C:\TMP\ENOSH\PASSTHETASH\PASSTHETASH\RELEASE\WMIEXEC_IOXIDRESOLVER.OBJ
C:\TMP\ENOSH\PASSTHETASH\PASSTHETASH\RELEASE\WMIEXEC_IREMUNKNOWN.OBJ
C:\TMP\ENOSH\PASSTHETASH\PASSTHETASH\RELEASE\WMIEXEC_ISYSTEMACTIVATOR.OBJ
C:\TMP\ENOSH\PASSTHETASH\PASSTHETASH\RELEASE\WMIEXEC_IWBEMLEVEL1LOGIN.OBJ
C:\TMP\ENOSH\PASSTHETASH\PASSTHETASH\RELEASE\WMIEXEC_IWBEMLOGINCLIENTID.OBJ
C:\TMP\ENOSH\PASSTHETASH\PASSTHETASH\RELEASE\WMIEXEC_IWBEMSERVICES.OBJ
C:\TMP\ENOSH\PASSTHETASH\PASSTHETASH\RELEASE\WMIEXEC_REMOTEINSTANCE.OBJ
C:\WINDOWS\GLOBALIZATION\SORTING\SORTDEFAULT.NLS
C:\PROGRAM FILES (X86)\MICROSOFT VISUAL STUDIO\2017\COMMUNITY\VC\TOOLS\MSVC\14.14.26428\BIN\HOSTX86\X86\C2.DLL
C:\PROGRAM FILES (X86)\MICROSOFT VISUAL STUDIO\2017\COMMUNITY\VC\TOOLS\MSVC\14.14.26428\LIB\X86\LIBCPMT.LIB
C:\PROGRAM FILES (X86)\MICROSOFT VISUAL STUDIO\2017\COMMUNITY\VC\TOOLS\MSVC\14.14.26428\LIB\X86\LIBCMT.LIB
C:\PROGRAM FILES (X86)\MICROSOFT VISUAL STUDIO\2017\COMMUNITY\VC\TOOLS\MSVC\14.14.26428\LIB\X86\OLDNAMES.LIB
C:\PROGRAM FILES (X86)\MICROSOFT VISUAL STUDIO\2017\COMMUNITY\VC\TOOLS\MSVC\14.14.26428\LIB\X86\COMSUPPW.LIB
C:\PROGRAM FILES (X86)\MICROSOFT VISUAL STUDIO\2017\COMMUNITY\VC\TOOLS\MSVC\14.14.26428\LIB\X86\LIBVCRUNTIME.LIB
C:\PROGRAM FILES (X86)\WINDOWS KITS\10\LIB\10.0.18362.0\UCRT\X86\LIBUCRT.LIB
C:\PROGRAM FILES (X86)\MICROSOFT VISUAL STUDIO\2017\COMMUNITY\VC\TOOLS\MSVC\14.14.26428\BIN\HOSTX86\X86\1033\LINKUI.DLL
C:\PROGRAM FILES (X86)\WINDOWS KITS\10\BIN\10.0.18362.0\X86\RC.EXE
C:\PROGRAM FILES (X86)\MICROSOFT VISUAL STUDIO\2017\COMMUNITY\VC\TOOLS\MSVC\14.14.26428\BIN\HOSTX86\X86\CVTRES.EXE
C:\WINDOWS\SYSTEM32\TZRES.DLL
C:\PROGRAM FILES (X86)\MICROSOFT VISUAL STUDIO\2017\COMMUNITY\VC\TOOLS\MSVC\14.14.26428\BIN\HOSTX86\X86\VCTIP.EXE
